3 Exprimiendo una base de datos: obtener datos útiles. | Métodos Cuantitativos para Relaciones Internacionales
…
mean(aprobacion[aprobacion$presidente=="Fernando de la Rúa",]$aprobacion_neta)
## [1] -0.9238752
# Y tendríamos que hacer esto 69 veces más!!

Por suerte, tenemos una alternativa: la combinación group_by + summarize. Con estos comandos del paquete dplyr tenemos esas órdenes con mucho menos líneas. En esta forma, se escribe menos (algo que se agradece cuando se tienen que programar codigos enormes) y podemos sacar muchos cálculos, no solo la media. Para obtener los datos de la aprobación promedio de los presidentes, el código sería el siguiente:

aprobacion %>% 
  group_by(presidente) %>% 
  summarise(mean(aprobacion_neta))

## # A tibble: 70 x 2
##    presidente       `mean(aprobacion_neta)`
##    <chr>                              <dbl>
##  1 Abel Pacheco                       16.5 
##  2 Alan García                       -19.3 
##  3 Alberto Fujimori                  -27.3 
##  4 Alejandro Toledo                  -47.6 
##  5 Alfonso Portillo                  -20.2 
##  6 Alfredo Palacio                    14.8 
##  7 Álvaro Colom                       15.1 
##  8 Álvaro Uribe                       46.1 
##  9 Andrés Pastrana                   -23.4 
## 10 Arnoldo Alemán                      1.29
## # ... with 60 more rows

Esto tiene la ventaja además de que nos puede crear una tabla con el promedio de aprobación por presidente, su género y país donde gobiernan, en este punto incluso podemos guardar esta tabla para usarla después:

aprobacion_media_presidente <- aprobacion %>% 
  group_by(pais, presidente, presidente_genero) %>% 
  summarise(mean(aprobacion_neta))

## `summarise()` has grouped output by 'pais', 'presidente'. You can override
## using the `.groups` argument.

aprobacion_media_presidente

## # A tibble: 70 x 4
## # Groups:   pais, presidente [70]
##    pais      presidente                     presidente_genero `mean(aprobacion~`
##    <chr>     <chr>                          <chr>                          <dbl>
##  1 Argentina Cristina Fernández de Kirchner Femenino                       8.98 
##  2 Argentina Eduardo Alberto Duhalde        Masculino                     -6.69 
##  3 Argentina Fernando de la Rúa             Masculino                     -0.924
##  4 Argentina Néstor Carlos Kirchner         Masculino                     44.3  
##  5 Bolivia   Carlos Mesa                    Masculino                      4.43 
##  6 Bolivia   Eduardo Rodríguez Veltzé       Masculino                     27.5  
##  7 Bolivia   Evo Morales                    Masculino                     22.3  
##  8 Bolivia   Gonzalo Sánchez de Lozada      Masculino                    -10.2  
##  9 Bolivia   Hugo Banzer                    Masculino                    -17.2  
## 10 Bolivia   Jorge Quiroga Ramírez          Masculino                    -14.2  
## # ... with 60 more rows

Nótese que en los nombres de las variables, la aprobación promedio aparece con el nombre de la función que usamos sobre la variable aprobacion_neta con mean(aprobacion_neta). Esto se logra poniendole el nombre que consideremos más conveniente dentro del comando summarize de esta manera:

aprobacion_media_presidente <- aprobacion %>% 
  group_by(pais, presidente, presidente_genero) %>% 
  summarise(aprobacion_media=mean(aprobacion_neta))

## `summarise()` has grouped output by 'pais', 'presidente'. You can override
## using the `.groups` argument.

aprobacion_media_presidente

## # A tibble: 70 x 4
## # Groups:   pais, presidente [70]
##    pais      presidente                     presidente_genero aprobacion_media
##    <chr>     <chr>                          <chr>                        <dbl>
##  1 Argentina Cristina Fernández de Kirchner Femenino                     8.98 
##  2 Argentina Eduardo Alberto Duhalde        Masculino                   -6.69 
##  3 Argentina Fernando de la Rúa             Masculino                   -0.924
##  4 Argentina Néstor Carlos Kirchner         Masculino                   44.3  
##  5 Bolivia   Carlos Mesa                    Masculino                    4.43 
##  6 Bolivia   Eduardo Rodríguez Veltzé       Masculino                   27.5  
##  7 Bolivia   Evo Morales                    Masculino                   22.3  
##  8 Bolivia   Gonzalo Sánchez de Lozada      Masculino                  -10.2  
##  9 Bolivia   Hugo Banzer                    Masculino                  -17.2  
## 10 Bolivia   Jorge Quiroga Ramírez          Masculino                  -14.2  
## # ... with 60 more rows
…
aprobacion %>% 
  group_by(pais, presidente, presidente_genero) %>% 
  summarise(desempleo_promedio=mean(desempleo),
            corrupcion_promedio=mean(corrupcion_correcta),
            aprobacion_promedio=mean(aprobacion_neta),
            anio_inicio=min(anio),
            anio_termino=max(anio)
  )

## `summarise()` has grouped output by 'pais', 'presidente'. You can override
## using the `.groups` argument.

## # A tibble: 70 x 8
## # Groups:   pais, presidente [70]
##    pais      presidente       presidente_gene~ desempleo_prome~ corrupcion_prom~
##    <chr>     <chr>            <chr>                       <dbl>            <dbl>
##  1 Argentina Cristina Fernán~ Femenino                     7.56             51.7
##  2 Argentina Eduardo Alberto~ Masculino                   18.2              33.4
##  3 Argentina Fernando de la ~ Masculino                   16.6              14.0
##  4 Argentina Néstor Carlos K~ Masculino                   11.4              50.1
##  5 Bolivia   Carlos Mesa      Masculino                    4.60             52.0
##  6 Bolivia   Eduardo Rodrígu~ Masculino                    5.08             38.1
##  7 Bolivia   Evo Morales      Masculino                    2.89             39.3
##  8 Bolivia   Gonzalo Sánchez~ Masculino                    5.07             60.5
##  9 Bolivia   Hugo Banzer      Masculino                    4.78             60.5
## 10 Bolivia   Jorge Quiroga R~ Masculino                    5.40             60.5
## # ... with 60 more rows, and 3 more variables: aprobacion_promedio <dbl>,
## #   anio_inicio <dbl>, anio_termino <dbl>
…
aprobacion %>% 
  group_by(pais, presidente, presidente_genero) %>% 
  summarise(desempleo_promedio=mean(desempleo),
            corrupcion_promedio=mean(corrupcion_correcta),
            aprobacion_promedio=mean(aprobacion_neta),
            anio_inicio=min(anio),
            anio_termino=max(anio)
  ) %>% ungroup %>% 
  arrange(aprobacion_promedio)

## `summarise()` has grouped output by 'pais', 'presidente'. You can override
## using the `.groups` argument.

## # A tibble: 70 x 8
##    pais      presidente       presidente_gene~ desempleo_prome~ corrupcion_prom~
##    <chr>     <chr>            <chr>                       <dbl>            <dbl>
##  1 Perú      Alejandro Toledo Masculino                    5.10            36.6 
##  2 Perú      Alberto Fujimori Masculino                    5.76            12.0 
##  3 Colombia  Andrés Pastrana  Masculino                   17.4             40.0 
##  4 Guatemala Alfonso Portillo Masculino                    2.31            74.7 
##  5 Paraguay  Luis Ángel Gonz~ Masculino                    8.00            77.5 
##  6 Perú      Alan García      Masculino                    3.90            38.5 
##  7 Venezuela Nicolás Maduro   Masculino                    7.20            94.4 
##  8 Bolivia   Hugo Banzer      Masculino                    4.78            60.5 
##  9 Chile     Sebastián Piñer~ Masculino                    7.00             4.05
## 10 Venezuela Hugo Chávez      Masculino                   10.7             87.3 
## # ... with 60 more rows, and 3 more variables: aprobacion_promedio <dbl>,
## #   anio_inicio <dbl>, anio_termino <dbl>
…
# cuando creamos una variable, debemos 'bautizarla' del lado izquierdo de la flechita podemos elegir el nombre que más nos convenga, pero del lado derecho si necesitamos llamar las variables que ya estan dentro de la base de datos.

Como puede verse, tiene que llamarse la base de datos junto con su respectiva variable cada que queremos llamar un componente, aunque sea la misma base de datos. Estas operaciones se pueden simplificar utilizando mutate:

### mutate

aprobacion <- aprobacion %>% 
  mutate(log_pib=log(pib_correcto),
         pib_per_capita = pib_correcto / poblacion )

aprobacion

## # A tibble: 1,020 x 13
##    pais       anio trimestre presidente         presidente_gene~ aprobacion_neta
##    <chr>     <dbl>     <dbl> <chr>              <chr>                      <dbl>
##  1 Argentina  2000         1 Fernando de la Rúa Masculino                  40.1 
##  2 Argentina  2000         2 Fernando de la Rúa Masculino                  16.4 
##  3 Argentina  2000         3 Fernando de la Rúa Masculino                  24.0 
##  4 Argentina  2000         4 Fernando de la Rúa Masculino                 -18.3 
##  5 Argentina  2001         1 Fernando de la Rúa Masculino                  -6.97
##  6 Argentina  2001         2 Fernando de la Rúa Masculino                 -20.1 
##  7 Argentina  2001         3 Fernando de la Rúa Masculino                 -19.4 
##  8 Argentina  2001         4 Fernando de la Rúa Masculino                 -23.2 
##  9 Argentina  2002         1 Eduardo Alberto D~ Masculino                  -2.01
## 10 Argentina  2002         2 Eduardo Alberto D~ Masculino                 -20.1 
## # ... with 1,010 more rows, and 7 more variables: corrupcion_correcta <dbl>,
## #   pib_correcto <dbl>, poblacion <dbl>, desempleo <dbl>,
## #   crecimiento_pib <dbl>, log_pib <dbl>, pib_per_capita <dbl>
3.4.2 group_by + mutate

A veces necesitamos calcular una variable agrupada pero en vez de presentarla en una tabla como resumen, que nos aparezca en cada renglón. Pensemos que queremos calcular la diferencia entre la aprobación media de un presidente y su aprobacion en cada trimestre, lo cual nos daría una idea más clara de la fluctuacion de su aprobación en relación con su periodo completo. Entonces tendríamos que hacer:

# calculamos la aprobacion por presidente
aprobacion_presidente <- aprobacion %>% group_by(presidente) %>% 
  summarise(aprobacion_media=mean(aprobacion_neta))

# unimos este resultado a nuestra base de datos aprobacion con el comando left join
aprobacion <- left_join(aprobacion, aprobacion_presidente, by="presidente")

# calculamos la diferencia respecto a la media 
aprobacion %>% mutate(diferencia_aprobacion=aprobacion_media-aprobacion_neta)

## # A tibble: 1,020 x 15
##    pais       anio trimestre presidente         presidente_gene~ aprobacion_neta
##    <chr>     <dbl>     <dbl> <chr>              <chr>                      <dbl>
##  1 Argentina  2000         1 Fernando de la Rúa Masculino                  40.1 
##  2 Argentina  2000         2 Fernando de la Rúa Masculino                  16.4 
##  3 Argentina  2000         3 Fernando de la Rúa Masculino                  24.0 
##  4 Argentina  2000         4 Fernando de la Rúa Masculino                 -18.3 
##  5 Argentina  2001         1 Fernando de la Rúa Masculino                  -6.97
##  6 Argentina  2001         2 Fernando de la Rúa Masculino                 -20.1 
##  7 Argentina  2001         3 Fernando de la Rúa Masculino                 -19.4 
##  8 Argentina  2001         4 Fernando de la Rúa Masculino                 -23.2 
##  9 Argentina  2002         1 Eduardo Alberto D~ Masculino                  -2.01
## 10 Argentina  2002         2 Eduardo Alberto D~ Masculino                 -20.1 
## # ... with 1,010 more rows, and 9 more variables: corrupcion_correcta <dbl>,
## #   pib_correcto <dbl>, poblacion <dbl>, desempleo <dbl>,
## #   crecimiento_pib <dbl>, log_pib <dbl>, pib_per_capita <dbl>,
## #   aprobacion_media <dbl>, diferencia_aprobacion <dbl>

Todas estas operaciones pueden hacerse con la dupla de comandos group_by + mutate de una manera más rapida y sencilla:

aprobacion %>% group_by(presidente) %>% 
  mutate(aprobacion_media=mean(aprobacion_neta), 
         diferencia=aprobacion_media-aprobacion_neta)

## # A tibble: 1,020 x 15
## # Groups:   presidente [70]
##    pais       anio trimestre presidente         presidente_gene~ aprobacion_neta
##    <chr>     <dbl>     <dbl> <chr>              <chr>                      <dbl>
##  1 Argentina  2000         1 Fernando de la Rúa Masculino                  40.1 
##  2 Argentina  2000         2 Fernando de la Rúa Masculino                  16.4 
##  3 Argentina  2000         3 Fernando de la Rúa Masculino                  24.0 
##  4 Argentina  2000         4 Fernando de la Rúa Masculino                 -18.3 
##  5 Argentina  2001         1 Fernando de la Rúa Masculino                  -6.97
##  6 Argentina  2001         2 Fernando de la Rúa Masculino                 -20.1 
##  7 Argentina  2001         3 Fernando de la Rúa Masculino                 -19.4 
##  8 Argentina  2001         4 Fernando de la Rúa Masculino                 -23.2 
##  9 Argentina  2002         1 Eduardo Alberto D~ Masculino                  -2.01
## 10 Argentina  2002         2 Eduardo Alberto D~ Masculino                 -20.1 
## # ... with 1,010 more rows, and 9 more variables: corrupcion_correcta <dbl>,
## #   pib_correcto <dbl>, poblacion <dbl>, desempleo <dbl>,
## #   crecimiento_pib <dbl>, log_pib <dbl>, pib_per_capita <dbl>,
## #   aprobacion_media <dbl>, diferencia <dbl>
…
